{
  "name": "Content",
  "plural": "Content",
  "base": "PersistedModel",
  "idInjection": true,
  "options": {
    "validateUpsert": true,
    "strictObjectIDCoercion": true
  },
  "properties": {
    "name": {
      "type": "string"
    },
    "slug": {
      "type": "string"
    },
    "description": {
      "type": "string"
    },
    "type": {
      "type": "string"
    },
    "parentId": {
      "type": "string"
    },
    "metaData": {
      "type": "object"
    }
  },
  "validations": [],
  "relations": {
    "TextContents": {
      "type": "hasMany",
      "model": "TextContent",
      "foreignKey": "contentId"
    },
    "MediaContents": {
      "type": "hasMany",
      "model": "MediaContent",
      "foreignKey": "contentId"
    },
    "Documents": {
      "type": "hasMany",
      "model": "Document",
      "foreignKey": "contentId"
    }
  },
  "acls": [
    {
      "accessType": "*",
      "principalType": "ROLE",
      "principalId": "$everyone",
      "permission": "DENY"
    },
    {
      "accessType": "READ",
      "principalType": "ROLE",
      "principalId": "$everyone",
      "permission": "ALLOW"
    },
    {
      "accessType": "WRITE",
      "principalType": "ROLE",
      "principalId": "$authenticated",
      "permission": "ALLOW"
    }
  ],
  "methods": {}
}
