{
  "name": "MediaContent",
  "plural": "MediaContent",
  "base": "PersistedModel",
  "idInjection": true,
  "options": {
    "validateUpsert": true,
    "strictObjectIDCoercion": true
  },
  "properties": {
    "title": {
      "type": "string"
    },
    "description": {
      "type": "string"
    }
  },
  "scope": {
    "include": [
      "content",
      "user"
    ]
  },
  "validations": [],
  "relations": {
    "content": {
      "type": "belongsTo",
      "model": "Content",
      "foreignKey": ""
    },
    "user": {
      "type": "belongsTo",
      "model": "Member",
      "foreignKey": ""
    }
  },
  "acls": [
    {
      "accessType": "*",
      "principalType": "ROLE",
      "principalId": "$everyone",
      "permission": "DENY"
    },
    {
      "accessType": "READ",
      "principalType": "ROLE",
      "principalId": "$everyone",
      "permission": "ALLOW"
    },
    {
      "accessType": "WRITE",
      "principalType": "ROLE",
      "principalId": "$authenticated",
      "permission": "ALLOW"
    }
  ],
  "methods": {}
}
