{
  "name": "Users",
  "plural": "Users",
  "base": "PersistedModel",
  "idInjection": true,
  "options": {
    "validateUpsert": true,
    "strictObjectIDCoercion": true
  },
  "properties": {
    "login": {
      "type": "string"
    },
    "password": {
      "type": "string"
    },
    "f": {
      "type": "string"
    },
    "n": {
      "type": "string"
    },
    "o": {
      "type": "string"
    },
    "date": {
      "type": "date"
    },
    "number": {
      "type": "string"
    },
    "type": {
      "type": "string"
    }
  },
  "validations": [],
  "relations": {
    "users": {
      "type": "hasMany",
      "model": "Book",
      "foreignKey": "usersId"
    },
    "usersBron": {
      "type": "hasMany",
      "model": "Bron",
      "foreignKey": "usersBronId"
    }
  },
  "acls": [],
  "methods": {}
}
